{
	"logs": [
		{
			"log_id":5,
            "organization":"idontexist!",
			"author":"jgwilli8@ncsu.edu",
			"date":"2020-02-06",
			"type":"Individual",
			"hours":2.5,
			"comments":"Trying to import a log"
        }
    ]
}

